<?xml version="1.0" encoding="utf-8"?>
<!-- Generator: Adobe Illustrator 25.2.0, SVG Export Plug-In . SVG Version: 6.00 Build 0)  -->
<svg version="1.1" id="Layer_1" xmlns="http://www.w3.org/2000/svg" xmlns:xlink="http://www.w3.org/1999/xlink" x="0px" y="0px"
	 viewBox="0 0 138.19 137.7" style="enable-background:new 0 0 138.19 137.7;" xml:space="preserve">
<style type="text/css">
	.st0{fill:#2735B0;}
	.st1{fill:#00A7FF;}
</style>
<g>
	<path class="st0" d="M68.42,0h1.06c0.04,4.82,0.02,9.64,0.01,14.46c-15.23-0.27-30.42,6.23-40.67,17.52
		c-8.44,9.08-13.6,21.13-14.29,33.51c-0.72,11.1,2.07,22.41,7.94,31.87c8.08,13.29,22.13,22.8,37.52,25.18
		c3.13,0.55,6.32,0.71,9.49,0.69c0.06,4.82-0.07,9.65,0.07,14.47h-1.93c-7.76-0.28-15.54-1.54-22.81-4.35
		C24.1,125.82,7.65,107.61,2.29,86.22C0.75,80.72,0.21,75,0,69.31v-0.94c0.2-9.73,2.21-19.46,6.35-28.28
		c7.49-16.45,21.76-29.7,38.77-35.82C52.55,1.41,60.5,0.24,68.42,0z"/>
	<path class="st0" d="M68.19,52.39c4.36-0.38,8.86,0.87,12.24,3.68c4.21,3.34,6.65,8.78,6.23,14.15
		c-0.15,7.98-6.9,15.13-14.81,15.89c-1.22,0.1-2.44,0.09-3.66,0.04C68.12,74.9,68.14,63.65,68.19,52.39z"/>
	<g id="_x23_00a7ffff">
		<path class="st1" d="M69.49,0h1c10.09,0.27,20.18,2.48,29.23,7.03c11.29,5.46,20.95,14.16,27.71,24.71
			c6.09,9.48,9.78,20.48,10.63,31.72c0.22,5.37,0.31,10.79-0.64,16.1c-2.88,19.4-14.69,37.2-31.33,47.56
			c-8.31,5.29-17.8,8.66-27.55,9.96c-5.38,0.64-8.97,0.64-8.97,0.64c-0.13-4.82-0.01-9.65-0.07-14.47
			c7.88-0.01,15.78-1.68,22.92-5.03c9.92-4.58,18.38-12.26,23.92-21.68c9.1-15.11,10.03-34.73,2.48-50.65
			c-3.87-8.36-9.94-15.69-17.4-21.1c-9.18-6.72-20.54-10.38-31.92-10.3C69.51,9.64,69.52,4.82,69.49,0z"/>
		<path class="st1" d="M68.68,25.65c6.81-0.25,13.68,1.16,19.81,4.16c10.06,4.79,18.1,13.65,21.87,24.14
			c2.69,7.2,3.17,15.12,1.9,22.66c-1.89,10.55-7.92,20.27-16.5,26.69c-7.69,5.86-17.42,8.98-27.09,8.62c0-4.2,0-8.4,0-12.61
			c6.82,0.25,13.71-1.82,19.2-5.9c6.36-4.63,10.8-11.82,12.06-19.59c1.04-6.19,0.13-12.71-2.62-18.36
			c-3.35-7-9.48-12.61-16.76-15.32c-3.78-1.44-7.85-2.04-11.88-1.93C68.68,34.03,68.67,29.84,68.68,25.65z"/>
		<path class="st1" d="M25.45,52.33c4.56,0.03,9.12-0.06,13.68,0.05c1.7,6.79,3.46,13.56,5.21,20.33c1.82-6.77,3.5-13.58,5.26-20.37
			c4.53,0,9.06,0,13.6,0c0.02,11.21-0.02,22.41,0.02,33.62c-2.81,0.08-5.63,0-8.44,0.05c-0.19-8.45,0.15-16.91-0.17-25.35
			c-2.06,8.46-4.33,16.87-6.43,25.32c-2.55,0.04-5.11,0-7.66,0.03c-2.24-8.45-4.26-16.96-6.56-25.39c-0.02,8.45-0.02,16.9,0,25.36
			c-2.83,0.04-5.67,0-8.5,0.02C25.44,74.77,25.45,63.55,25.45,52.33z"/>
	</g>
</g>
</svg>
